coarse_predictions,y_final,y_true
126.21335,126.26173,117.12771534281978
78.59121,78.64355,90.19455545214696
-42.4073,-42.346718,-68.12865876314322
4.7195964,4.777377,-16.02223852636008
34.826237,34.882217,4.45269505130512
13.659834,13.717242,8.368075972878643
-90.70859,-90.64399,-87.74532099344928
-142.56534,-142.49681,-158.85966380382425
-57.243195,-57.181377,-59.26000846236089
-125.29672,-125.22949,-125.75066674997136
103.70976,103.76001,132.6179901742287
82.57419,82.6262,73.88032829084264
-97.80786,-97.74268,-115.55754765596821
-156.39038,-156.32083,-170.82738558677593
-58.99285,-58.930885,-14.056180864409079
-30.984587,-30.92496,-8.20294954460498
-115.563034,-115.49653,-127.70975706235353
-34.69689,-34.636955,-28.41151665192296
-154.96487,-154.89543,-166.61330485567592
-125.75572,-125.68845,-117.84831809548594
-91.917915,-91.85322,-113.03262906199801
87.48163,87.533226,100.95236669701076
-51.74164,-51.68028,-30.596293036974817
41.908287,41.963676,45.27975606552351
-56.1871,-56.12537,-72.64506203795614
-156.65172,-156.58214,-168.27045920258016
42.4895,42.54484,31.752986660491047
-108.553604,-108.487625,-95.6133706702608
93.13864,93.189766,80.65965901530862
-21.097965,-21.03909,-27.616062201422423
-94.154495,-94.089615,-93.49439177638918
66.93791,66.99122,51.9083886439976
-29.939936,-29.880394,-20.185174108246066
-145.72368,-145.65492,-145.00568582763327
74.68293,74.735596,61.176733425907614
28.275858,28.332384,19.089645634798995
-39.15662,-39.09631,-49.74881751045379
-96.4884,-96.42333,-103.8151917439588
51.67903,51.73361,58.339516853309405
-22.950632,-22.891674,-10.257520559608075
-55.867355,-55.805653,-50.186351772012124
131.43681,131.48476,153.79112827906786
-6.534977,-6.476721,4.293021938687527
-67.26329,-67.20064,-58.812300942046235
-167.5421,-167.47171,-173.63260765785685
-23.867544,-23.80851,-20.848226799817702
-45.872337,-45.811466,-63.322642540842665
-116.164185,-116.09763,-100.77575150124578
60.952732,61.00654,50.540224502731206
97.75485,97.805595,120.35469523771945
-48.318596,-48.257523,-37.44809665119196
-42.7044,-42.643795,-6.635828533629304
-11.991247,-11.932759,16.033039446416463
15.9211235,15.978437,11.093837268641227
-154.66502,-154.5956,-188.32682388650616
39.013344,39.068977,23.83032763498479
126.153885,126.20226,148.4615635648434
37.64998,37.705723,39.469999652605075
-8.803027,-8.744675,-12.22785101866167
-76.33961,-76.2762,-59.23001980968374
29.612114,29.668528,28.871339758253843
-80.22496,-80.16123,-70.26757698497765
-13.321608,-13.2630625,0.4676601908294016
-27.366219,-27.306892,-33.57697232589727
41.067146,41.12261,27.386417763182017
-68.648735,-68.58597,-68.87440245071055
-143.29166,-143.22308,-171.77684572883666
-85.20182,-85.13768,-74.7521593071188
32.59625,32.652416,28.20035532512156
-53.497044,-53.435535,-39.438392360804784
40.10676,40.1623,49.47133494397985
-76.05842,-75.99503,-55.60644116828895
101.24412,101.29457,89.92861809172456
-37.814205,-37.754005,-7.376841358207621
-82.01918,-81.9553,-78.99499852539834
-89.151215,-89.08675,-71.98693309080238
112.45682,112.50634,103.923785401145
-93.72002,-93.655174,-81.77064845071709
85.70793,85.759674,79.81876787250874
0.86002374,0.91796553,3.755200706301988
117.78022,117.8293,122.1910615126448
19.960861,20.017994,5.481862191872758
-43.954704,-43.893993,-36.618356877581896
-21.708427,-21.649525,-30.978895835407055
-60.287903,-60.22583,-80.97126921789693
-188.76605,-188.69408,-213.93431599977615
-100.80027,-100.73487,-121.28318878716438
131.07642,131.12439,146.55528730234718
-90.08463,-90.02009,-66.65714554474317
83.24558,83.29753,87.15125112565796
-43.565643,-43.504967,-4.309503057450332
-3.514713,-3.4565852,-6.885891248903747
141.84192,141.88899,135.09405380877047
58.865,58.91898,54.780246645110196
115.20769,115.25698,125.72591869459487
-75.328674,-75.26535,-45.60216743573067
75.1494,75.20203,82.44481253942959
-5.529495,-5.4712815,27.917198484266976
-78.97833,-78.9147,-76.6113481154716
80.26598,80.318184,69.73997790648474
-48.593002,-48.531906,-20.130766354580622
-11.40333,-11.344867,-27.650780221671972
28.31296,28.369482,14.54210707754961
-184.32433,-184.25269,-197.19950859520839
40.770893,40.826378,45.58772737657046
77.686325,77.73874,74.60205583929569
31.549736,31.60599,29.530045731404826
-56.4476,-56.38585,-57.580783955636996
6.1538296,6.21155,11.003294057923032
36.686962,36.742786,41.97582440993526
-119.052124,-118.98536,-135.9845573409644
86.66581,86.717476,101.07081474809254
-64.11203,-64.04964,-66.69672152859012
168.52147,168.56633,170.63511290904188
73.72385,73.77659,61.253136861483874
-74.681015,-74.617744,-38.31095502446616
-59.280384,-59.218395,-87.50173342625332
-90.57117,-90.506584,-73.64166789040097
-113.59488,-113.52852,-108.80292787980665
5.6961474,5.753887,-3.3521070330485214
-145.64948,-145.58072,-128.2480208771737
77.26096,77.313416,56.65072299960248
90.1682,90.219574,100.31832285264433
-51.997658,-51.936275,-29.257064949515566
106.56134,106.61135,103.23243586670162
138.64241,138.68976,146.95197436196355
-56.27913,-56.217392,-60.34342475143085
44.599895,44.655064,42.90790837645844
-90.30887,-90.24431,-101.9245390036911
-53.644745,-53.583225,-37.394910406886694
16.140886,16.19819,-11.260640410299237
-131.67311,-131.60541,-109.26169250073755
101.764114,101.81452,89.41686500330712
-154.86433,-154.79489,-191.79162049740657
20.909693,20.966776,-18.358246377844377
-72.11291,-72.04985,-78.74923325182608
-75.26568,-75.202354,-62.86770684018976
25.699156,25.755896,15.57445322022998
30.216646,30.27301,48.38876730650399
123.719864,123.76845,133.8160519919467
28.86669,28.923166,59.93684738937345
-85.6871,-85.622925,-56.475041501375145
20.685621,20.742716,7.7963359341411795
-38.53645,-38.476192,-42.22371914577867
-31.307985,-31.248331,-16.041183381171194
0.1577771,0.21574873,-15.92263259862094
43.29731,43.352585,79.38373440834597
59.160942,59.214897,50.31038454357745
-155.0296,-154.96014,-174.16581973996068
-47.761787,-47.70076,-49.20846365856184
-58.912193,-58.850235,-62.66009788067292
-49.483936,-49.422764,-48.35310637162364
17.554052,17.611298,-5.7192367453260715
-67.72754,-67.66485,-80.7842599478762
60.873405,60.92722,50.76026521393968
142.35896,142.40599,178.76767918339706
-4.8730235,-4.814838,-9.828228754408856
-77.688736,-77.62521,-67.28344767815273
60.956367,61.010174,55.91176292344968
35.82625,35.882145,40.51086721910977
-36.65368,-36.59358,-30.566330569974696
83.65739,83.709305,89.45992619110248
31.004402,31.0607,29.244162845767743
-71.89406,-71.83102,-63.21444536515944
38.93624,38.99188,20.571386639510955
-45.502293,-45.441452,-53.78137827266132
59.40005,59.453987,54.799667951841144
101.196686,101.24714,93.52556795350057
-65.017654,-64.955185,-37.8895557330092
61.663456,61.7172,50.1002994027315
52.90857,52.963043,43.43906795482601
132.51454,132.5624,119.67063003521673
-81.60383,-81.539986,-86.09185101758706
63.030025,63.08366,51.98551271491412
-94.5479,-94.48299,-105.37912833579992
67.80251,67.85575,63.09151071012251
-21.333042,-21.274157,-13.743832718449902
161.26045,161.30591,158.95762382288504
38.268024,38.32372,36.132683715332895
-48.810432,-48.749317,-52.33825075339492
63.139725,63.193348,62.31791488394828
120.451546,120.5004,134.48676581807638
29.159916,29.216368,49.0246726183848
23.29328,23.35022,30.06539656622361
121.055336,121.10414,125.43193177920891
-45.304604,-45.243782,-49.56559585220524
78.7589,78.811226,55.35704430252485
104.984,105.03414,119.86837166536986
-79.982544,-79.91883,-76.26650490584389
-62.19217,-62.129936,-79.54380085678272
-74.611694,-74.54843,-69.71120384283387
-77.41249,-77.34899,-71.64742142302113
1.6962264,1.754133,39.70529416112732
-41.63607,-41.575554,-1.1048949617805732
162.2089,162.25427,155.16118638789104
-97.51017,-97.445015,-75.98744685867386
62.20033,62.254032,67.74509918550017
-5.6737065,-5.615487,7.557129283297061
54.94548,54.999786,52.98325677850381
-126.53923,-126.47191,-150.52534689931565
